{
  "appPageId" : "be3b26f3-9e59-420a-9e12-c01aff7aa70e",
  "componentName" : "siteforce:dynamicLayout",
  "id" : "221af40f-cf86-4d28-8c32-5e8196fe1c7a",
  "label" : "feedback",
  "regions" : [ {
    "components" : [ {
      "componentAttributes" : {
        "background" : "background: rgba(0,0,0,0)",
        "backgroundOverlay" : "rgba(0,0,0,0.5)",
        "contentAreaWidth" : 100,
        "sectionConfig" : {
          "UUID" : "406c19f0-ec1e-4690-8570-4fc44714c1c3",
          "columns" : [ {
            "UUID" : "2309ebc6-ca36-4984-b4a0-3ad95439b4c8",
            "columnKey" : "1",
            "columnName" : "Column 1",
            "columnWidth" : "12",
            "seedComponents" : [ ]
          } ]
        },
        "sectionHeight" : 300
      },
      "componentName" : "forceCommunity:section",
      "id" : "406c19f0-ec1e-4690-8570-4fc44714c1c3",
      "regions" : [ {
        "components" : [ {
          "componentAttributes" : { },
          "componentName" : "c:woil_feedbackscreen",
          "id" : "85bf193e-5366-4d56-b43f-0d6607093442",
          "renderPriority" : "NEUTRAL",
          "renditionMap" : { },
          "type" : "component"
        } ],
        "id" : "2309ebc6-ca36-4984-b4a0-3ad95439b4c8",
        "regionLabel" : "Column 1",
        "regionName" : "1",
        "renditionMap" : { },
        "type" : "region"
      } ],
      "renderPriority" : "NEUTRAL",
      "renditionMap" : { },
      "type" : "component"
    } ],
    "id" : "1e7a8e17-42f8-41de-b4a9-9c3c35c2a7de",
    "regionName" : "content",
    "type" : "region"
  }, {
    "components" : [ {
      "componentAttributes" : {
        "customHeadTags" : "",
        "description" : "",
        "title" : "feedback"
      },
      "componentName" : "forceCommunity:seoAssistant",
      "id" : "99340a19-88ac-4275-8f3e-b90acfb17ba7",
      "renditionMap" : { },
      "type" : "component"
    } ],
    "id" : "53d02e6c-4c74-403f-b2d6-5755bf5c4bfe",
    "regionName" : "sfdcHiddenRegion",
    "type" : "region"
  } ],
  "themeLayoutType" : "Inner",
  "type" : "view",
  "viewType" : "custom-feedback"
}