{
  "appPageId" : "be3b26f3-9e59-420a-9e12-c01aff7aa70e",
  "componentName" : "siteforce:sldsOneColLayout",
  "id" : "2f25ef5e-ef02-47ed-b2c1-d14caa7d21b5",
  "label" : "File 関連リスト",
  "regions" : [ {
    "id" : "d4f8111b-0499-4ecb-88ee-f080aa1315e2",
    "regionName" : "header",
    "type" : "region"
  }, {
    "components" : [ {
      "componentAttributes" : {
        "customTitle" : "",
        "parentRecordId" : "{!recordId}",
        "relatedListName" : "{!relationshipApiName}",
        "showBreadCrumbs" : true,
        "showCustomTitle" : false,
        "showManualRefreshButton" : true,
        "showRowNumbers" : true
      },
      "componentName" : "forceCommunity:relatedList",
      "id" : "09e4380b-6bc9-48c0-bdf3-938f1711ba15",
      "renderPriority" : "NEUTRAL",
      "renditionMap" : { },
      "type" : "component"
    } ],
    "id" : "8e2f8d59-e68f-4092-829a-01186b7a5c4c",
    "regionName" : "content",
    "type" : "region"
  }, {
    "id" : "edb9f4c2-5e32-4a06-b1f6-b8709b51ebde",
    "regionName" : "footer",
    "type" : "region"
  } ],
  "themeLayoutType" : "Inner",
  "type" : "view",
  "viewType" : "relatedlist-069"
}