{
  "appPageId" : "be3b26f3-9e59-420a-9e12-c01aff7aa70e",
  "componentName" : "siteforce:sldsOneColLayout",
  "id" : "df8b77c6-c0cc-457e-ac03-1dc6c9952009",
  "label" : "Flow",
  "regions" : [ {
    "id" : "8db079a9-abf5-4eec-b27b-55f9a05dce6c",
    "regionName" : "header",
    "type" : "region"
  }, {
    "components" : [ {
      "componentAttributes" : {
        "flowArguments" : "",
        "flowLayout" : "oneColumn",
        "flowName" : "{!flowName}"
      },
      "componentName" : "forceCommunity:flowCommunity",
      "id" : "c848b63d-8820-49c0-8b63-7f85b7e48968",
      "renderPriority" : "NEUTRAL",
      "renditionMap" : { },
      "type" : "component"
    } ],
    "id" : "3ccd27a0-b9fa-4301-ae55-8b5509db94c7",
    "regionName" : "content",
    "type" : "region"
  }, {
    "id" : "1a67acb8-511c-4ed9-9f9d-c9e7ddfdab75",
    "regionName" : "footer",
    "type" : "region"
  } ],
  "themeLayoutType" : "Inner",
  "type" : "view",
  "viewType" : "flow"
}