{
  "appPageId" : "be3b26f3-9e59-420a-9e12-c01aff7aa70e",
  "componentName" : "siteforce:sldsOneColLayout",
  "id" : "f680b412-05f3-45c1-95b2-f18414427ee9",
  "label" : "GRN Related List",
  "regions" : [ {
    "id" : "821fc4fb-1971-4427-a545-e82a75616807",
    "regionName" : "header",
    "type" : "region"
  }, {
    "components" : [ {
      "componentAttributes" : {
        "customTitle" : "",
        "parentRecordId" : "{!recordId}",
        "relatedListName" : "{!relationshipApiName}",
        "showBreadCrumbs" : true,
        "showCustomTitle" : false,
        "showManualRefreshButton" : true,
        "showRowNumbers" : true
      },
      "componentName" : "forceCommunity:relatedList",
      "id" : "b986f366-c777-46c0-a83b-256b96d3577e",
      "renderPriority" : "NEUTRAL",
      "renditionMap" : { },
      "type" : "component"
    } ],
    "id" : "6c877f65-0182-4c73-8e0b-51842bd271fc",
    "regionName" : "content",
    "type" : "region"
  }, {
    "id" : "30f9cbde-314e-4fdf-a2f3-6646c13109ba",
    "regionName" : "footer",
    "type" : "region"
  } ],
  "themeLayoutType" : "Inner",
  "type" : "view",
  "viewType" : "relatedlist-a0D"
}