{
  "appPageId" : "be3b26f3-9e59-420a-9e12-c01aff7aa70e",
  "componentName" : "siteforce:sldsOneColLayout",
  "id" : "23ed2e0a-a639-4ae8-b736-33b806c26c64",
  "label" : "Opening Stock Detail",
  "regions" : [ {
    "id" : "9054d614-2747-4cc4-9752-ce0a185cdd85",
    "regionName" : "header",
    "type" : "region"
  }, {
    "components" : [ {
      "componentAttributes" : {
        "recordId" : "{!recordId}"
      },
      "componentName" : "forceCommunity:recordHeadline",
      "id" : "215b493d-afa1-42dd-81e6-f6b2d68c9a40",
      "renderPriority" : "NEUTRAL",
      "renditionMap" : { },
      "type" : "component"
    }, {
      "componentAttributes" : {
        "detailsTabLabel" : "Details",
        "discussionsTabLabel" : "Feed",
        "recordId" : "{!recordId}",
        "relatedTabLabel" : "Related",
        "tab1Type" : "details",
        "tab2Type" : "none",
        "tab3Type" : "none",
        "tab4Type" : "none",
        "timelineTabLabel" : "Activity"
      },
      "componentName" : "forceCommunity:recordHomeTabs",
      "id" : "75f5ab39-bcdc-4300-b62a-6bd1a418a5d3",
      "renderPriority" : "NEUTRAL",
      "renditionMap" : { },
      "type" : "component"
    } ],
    "id" : "8152c56b-a963-404a-97b4-826fe0ba5b09",
    "regionName" : "content",
    "type" : "region"
  }, {
    "components" : [ {
      "componentAttributes" : { },
      "componentName" : "c:Woil_AddOpeningStock",
      "id" : "e4faa8c1-1de8-4d75-90b6-46e9a0d1ae97",
      "renderPriority" : "NEUTRAL",
      "renditionMap" : { },
      "type" : "component"
    } ],
    "id" : "a3f02c59-2320-4ec1-9149-b74663bc53b8",
    "regionName" : "footer",
    "type" : "region"
  }, {
    "components" : [ {
      "componentAttributes" : {
        "customHeadTags" : "",
        "description" : "",
        "title" : "{!Record._Object}: {!Record._Title}"
      },
      "componentName" : "forceCommunity:seoAssistant",
      "id" : "caceaad5-ea25-42a6-a114-fad0076033f7",
      "renditionMap" : { },
      "type" : "component"
    } ],
    "id" : "3190106d-4971-46ca-811c-14c1470319b9",
    "regionName" : "sfdcHiddenRegion",
    "type" : "region"
  } ],
  "themeLayoutType" : "Inner",
  "type" : "view",
  "viewType" : "detail-a0p"
}