{
  "appPageId" : "be3b26f3-9e59-420a-9e12-c01aff7aa70e",
  "componentName" : "siteforce:sldsTwoCol84Layout",
  "id" : "e5031592-857c-4c4d-bb12-d6356efdfc11",
  "label" : "Resources",
  "regions" : [ {
    "id" : "d9198536-11fe-4935-a4bd-536c5d9466d9",
    "regionName" : "header",
    "type" : "region"
  }, {
    "components" : [ {
      "componentAttributes" : {
        "librariesHeaderLabel" : "Libraries",
        "showWorkspaceImage" : true
      },
      "componentName" : "forceCommunity:workspacesList",
      "id" : "1a69fbf9-3791-4b67-8c45-44451c01169a",
      "renderPriority" : "NEUTRAL",
      "renditionMap" : { },
      "type" : "component"
    } ],
    "id" : "136167fb-c166-4e8a-b775-d4c3e6225cdd",
    "regionName" : "content",
    "type" : "region"
  }, {
    "components" : [ {
      "componentAttributes" : {
        "title" : "Popular Now"
      },
      "componentName" : "forceChatter:recommendationsBig",
      "id" : "05e36c61-9a85-4a41-a009-ec21f5d59b3a",
      "renderPriority" : "NEUTRAL",
      "renditionMap" : { },
      "type" : "component"
    } ],
    "id" : "87009b7e-2162-4c7c-9bdc-75075b832a1e",
    "regionName" : "sidebar",
    "type" : "region"
  }, {
    "id" : "55af699e-d26d-4bd6-88a4-a693eb1aece9",
    "regionName" : "footer",
    "type" : "region"
  }, {
    "components" : [ {
      "componentAttributes" : {
        "customHeadTags" : "",
        "description" : "",
        "title" : "Resources"
      },
      "componentName" : "forceCommunity:seoAssistant",
      "id" : "bf83537a-f118-46a2-aad1-6ef8cbd72001",
      "renditionMap" : { },
      "type" : "component"
    } ],
    "id" : "7cf4ad57-a31f-4f07-93f1-76aa42d8055b",
    "regionName" : "sfdcHiddenRegion",
    "type" : "region"
  } ],
  "themeLayoutType" : "Inner",
  "type" : "view",
  "viewType" : "files"
}