{
  "appPageId" : "be3b26f3-9e59-420a-9e12-c01aff7aa70e",
  "componentName" : "siteforce:sldsOneColLayout",
  "id" : "f7eabe4b-50dd-4c14-ad19-abee61677e3f",
  "label" : "Return Order Related List",
  "regions" : [ {
    "id" : "dac76001-3446-4aa2-8d71-b7f8c3c3a40a",
    "regionName" : "header",
    "type" : "region"
  }, {
    "components" : [ {
      "componentAttributes" : {
        "customTitle" : "",
        "parentRecordId" : "{!recordId}",
        "relatedListName" : "{!relationshipApiName}",
        "showBreadCrumbs" : true,
        "showCustomTitle" : false,
        "showManualRefreshButton" : true,
        "showRowNumbers" : true
      },
      "componentName" : "forceCommunity:relatedList",
      "id" : "a9492d86-a49e-484e-878c-e5a5aef7cba7",
      "renderPriority" : "NEUTRAL",
      "renditionMap" : { },
      "type" : "component"
    } ],
    "id" : "b26f89f9-9760-412f-bfb7-4c6e82e76712",
    "regionName" : "content",
    "type" : "region"
  }, {
    "id" : "cf84cdad-4b48-415e-9048-4703df757b8d",
    "regionName" : "footer",
    "type" : "region"
  } ],
  "themeLayoutType" : "Inner",
  "type" : "view",
  "viewType" : "relatedlist-a0n"
}