{
  "appPageId" : "be3b26f3-9e59-420a-9e12-c01aff7aa70e",
  "componentName" : "siteforce:sldsOneColLayout",
  "id" : "da0c84ab-636d-4bf5-a647-13fef864e7b1",
  "label" : "Stream Detail",
  "regions" : [ {
    "id" : "0846d4e6-0d4f-4629-81ce-bb8918333d1e",
    "regionName" : "header",
    "type" : "region"
  }, {
    "components" : [ {
      "componentAttributes" : {
        "id" : "{!recordId}"
      },
      "componentName" : "forceCommunity:streamDetail",
      "id" : "0c9eb522-f1e0-4590-80ea-bb28169981d0",
      "renderPriority" : "NEUTRAL",
      "renditionMap" : { },
      "type" : "component"
    } ],
    "id" : "0a4e2a62-c22f-4144-845d-6c937490edcf",
    "regionName" : "content",
    "type" : "region"
  }, {
    "id" : "2b13de96-f9f8-4e8b-8c3a-b20dba8dc95d",
    "regionName" : "footer",
    "type" : "region"
  } ],
  "themeLayoutType" : "Inner",
  "type" : "view",
  "viewType" : "detail-0Fq"
}