{
  "appPageId" : "be3b26f3-9e59-420a-9e12-c01aff7aa70e",
  "componentName" : "siteforce:sldsOneColLayout",
  "id" : "683c6359-eec6-458f-8212-8dc2dc9d53cd",
  "label" : "User Profile",
  "regions" : [ {
    "id" : "68b46615-463d-4431-b86f-b263e675bd13",
    "regionName" : "header",
    "type" : "region"
  }, {
    "components" : [ {
      "componentAttributes" : {
        "id" : "{!recordId}",
        "showFullPhotoAsCircle" : true,
        "showReputation" : false
      },
      "componentName" : "forceCommunity:userProfileHeader",
      "id" : "d014c898-4739-4d4d-b418-2bdec7b137eb",
      "renderPriority" : "NEUTRAL",
      "renditionMap" : { },
      "type" : "component"
    }, {
      "componentAttributes" : {
        "tabsetConfig" : {
          "UUID" : "7df65e71-cf27-47a3-bb21-39592fc8d348",
          "activeTab" : "tab1",
          "tabs" : [ {
            "UUID" : "8ab3de97-1d78-4a3b-b4a6-3a771d4f6903",
            "allowGuestUser" : false,
            "locked" : false,
            "seedComponents" : [ {
              "attributes" : { },
              "fqn" : "forceCommunity:userProfileDetail"
            } ],
            "tabKey" : "tab1",
            "tabName" : "Details"
          }, {
            "UUID" : "fb2dd9eb-392a-4cf7-9f71-1342c1c648fa",
            "allowGuestUser" : false,
            "locked" : false,
            "seedComponents" : [ {
              "attributes" : { },
              "fqn" : "forceCommunity:userRelatedList"
            } ],
            "tabKey" : "tab2",
            "tabName" : "Related"
          } ],
          "useOverflowMenu" : false
        }
      },
      "componentName" : "forceCommunity:tabset",
      "id" : "7df65e71-cf27-47a3-bb21-39592fc8d348",
      "regions" : [ {
        "components" : [ {
          "componentAttributes" : {
            "id" : "{!recordId}"
          },
          "componentName" : "forceCommunity:userProfileDetail",
          "id" : "7d69c8f5-f99f-4f69-a1f2-7e77c9378007",
          "renditionMap" : { },
          "type" : "component"
        } ],
        "id" : "8ab3de97-1d78-4a3b-b4a6-3a771d4f6903",
        "regionLabel" : "Details",
        "regionName" : "tab1",
        "renditionMap" : { },
        "type" : "region"
      }, {
        "components" : [ {
          "componentAttributes" : {
            "userId" : "{!recordId}"
          },
          "componentName" : "forceCommunity:userRelatedList",
          "id" : "29bde398-f2a8-494b-b7c4-0e3cd34b58df",
          "renditionMap" : { },
          "type" : "component"
        } ],
        "id" : "fb2dd9eb-392a-4cf7-9f71-1342c1c648fa",
        "regionLabel" : "Related",
        "regionName" : "tab2",
        "renditionMap" : { },
        "type" : "region"
      } ],
      "renderPriority" : "NEUTRAL",
      "renditionMap" : { },
      "type" : "component"
    } ],
    "id" : "7a2c4d76-7594-4225-a091-9da874c2990a",
    "regionName" : "content",
    "type" : "region"
  }, {
    "id" : "0ffde39d-ba85-4e29-a762-11814bfa8ec2",
    "regionName" : "footer",
    "type" : "region"
  } ],
  "themeLayoutType" : "Inner",
  "type" : "view",
  "viewType" : "detail-005"
}