{
  "activeViewId" : "8fe2d91d-9bc5-43d9-8b94-7e79becd5c07",
  "appPageId" : "be3b26f3-9e59-420a-9e12-c01aff7aa70e",
  "configurationTags" : [ ],
  "id" : "fb740c7f-e3c0-4851-be64-30edd3f9576d",
  "label" : "Account Management",
  "routeType" : "account-management",
  "type" : "route",
  "urlPrefix" : "account-management"
}