{
  "activeViewId" : "f680b412-05f3-45c1-95b2-f18414427ee9",
  "appPageId" : "be3b26f3-9e59-420a-9e12-c01aff7aa70e",
  "configurationTags" : [ ],
  "id" : "f4b17e1f-0171-4b53-a3d4-ac4a6bf2bd8b",
  "label" : "GRN Related List",
  "objectApiName" : "GRN__c",
  "routeType" : "relatedlist-a0D",
  "type" : "route",
  "urlPrefix" : "grn"
}