{
  "activeViewId" : "03297050-9860-474d-9d0d-3d6a2b240c46",
  "appPageId" : "be3b26f3-9e59-420a-9e12-c01aff7aa70e",
  "configurationTags" : [ ],
  "id" : "a7d1ef57-63e6-44fc-b1f1-31a2dd1b7795",
  "label" : "Invoice Detail",
  "objectApiName" : "Invoice__c",
  "routeType" : "detail-a0E",
  "type" : "route",
  "urlPrefix" : "invoice"
}