{
  "activeViewId" : "23ed2e0a-a639-4ae8-b736-33b806c26c64",
  "appPageId" : "be3b26f3-9e59-420a-9e12-c01aff7aa70e",
  "configurationTags" : [ ],
  "id" : "56b85a87-d38e-447d-869f-7184aff50813",
  "label" : "Opening Stock Detail",
  "objectApiName" : "Woil_Opening_Stock__c",
  "routeType" : "detail-a0p",
  "type" : "route",
  "urlPrefix" : "woil-opening-stock"
}