{
  "activeViewId" : "8f668a33-f662-4641-a5c2-975522e3e75b",
  "appPageId" : "be3b26f3-9e59-420a-9e12-c01aff7aa70e",
  "configurationTags" : [ ],
  "id" : "475598eb-5d6c-45a4-b3e1-75f674162383",
  "label" : "Purchase Return List",
  "objectApiName" : "Woil_SRN__c",
  "routeType" : "list-a0Z",
  "type" : "route",
  "urlPrefix" : "woil-srn"
}