{
  "activeViewId" : "fe9392a0-9b06-479f-b573-52aeade83cd4",
  "appPageId" : "be3b26f3-9e59-420a-9e12-c01aff7aa70e",
  "configurationTags" : [ ],
  "id" : "59316777-a259-40a9-b628-1d7362061bec",
  "label" : "Report List",
  "routeType" : "list-00O",
  "type" : "route",
  "urlPrefix" : "report"
}