{
  "activeViewId" : "80f5f968-d635-40fb-83f3-fd1878da4508",
  "appPageId" : "be3b26f3-9e59-420a-9e12-c01aff7aa70e",
  "configurationTags" : [ ],
  "id" : "2544163e-55af-4cdc-bc70-88bf4e8a6b4b",
  "label" : "Scheme List",
  "objectApiName" : "Woil_Scheme_Master__c",
  "routeType" : "list-a0t",
  "type" : "route",
  "urlPrefix" : "woil-scheme-master"
}