{
  "activeViewId" : "909f3cf1-8c93-4990-bf1a-401faf597bd1",
  "appPageId" : "be3b26f3-9e59-420a-9e12-c01aff7aa70e",
  "configurationTags" : [ ],
  "id" : "cf3ba3ba-1003-4e5e-a6a6-e5f17f38259e",
  "label" : "Topic Detail",
  "routeType" : "topic",
  "type" : "route",
  "urlPrefix" : "topic"
}