{
  "activeViewId" : "97a281dc-59ea-4640-a10d-202110c94139",
  "appPageId" : "be3b26f3-9e59-420a-9e12-c01aff7aa70e",
  "configurationTags" : [ ],
  "id" : "7a69ebdd-a8d4-4493-890b-0de5a255d8f8",
  "label" : "User リスト",
  "routeType" : "list-005",
  "type" : "route",
  "urlPrefix" : "profile"
}